var data = {"total":821,"per_page":30,"current_page":28,"last_page":28,"next_page_url":null,"prev_page_url":"https:\/\/animepahe.com\/api?page=27","from":811,"to":821,"data":[{"id":41712,"anime_id":4,"anime_title":"One Piece","anime_slug":"one-piece","episode":"817","title":"","fansub":"HorribleSubs","snapshot":"https:\/\/d.upld.me\/2017\/12\/10\/bgvzs.md.jpg","disc":"","duration":"00:23:55","session":"4fec0feeebc8282400b1b09a77e8bf5dafa04a92","filler":0,"created_at":"2017-12-10 04:48:10"},{"id":41787,"anime_id":4,"anime_title":"One Piece","anime_slug":"one-piece","episode":"818","title":"","fansub":"HorribleSubs","snapshot":"https:\/\/d.upld.me\/2017\/12\/17\/bvIYf.md.jpg","disc":"","duration":"00:23:55","session":"e427d8befe785f2f6184a7473cc1e4edb9897a13","filler":0,"created_at":"2017-12-17 05:48:08"},{"id":41853,"anime_id":4,"anime_title":"One Piece","anime_slug":"one-piece","episode":"819","title":"","fansub":"HorribleSubs","snapshot":"https:\/\/d.upld.me\/2017\/12\/24\/bwhbT.md.jpg","disc":"","duration":"00:23:55","session":"aeda84a7181e4cc3ab53b7f2404aa70627db5952","filler":0,"created_at":"2017-12-24 04:45:10"},{"id":41924,"anime_id":4,"anime_title":"One Piece","anime_slug":"one-piece","episode":"820","title":"","fansub":"HorribleSubs","snapshot":"https:\/\/d.upld.me\/2018\/01\/07\/bUqyh.md.jpg","disc":"","duration":"00:23:55","session":"214f9c8bf6940e2c7e2cfbbedf91f046b28e7d33","filler":0,"created_at":"2018-01-07 05:45:14"},{"id":41993,"anime_id":4,"anime_title":"One Piece","anime_slug":"one-piece","episode":"821","title":"","fansub":"HorribleSubs","snapshot":"https:\/\/d.upld.me\/2018\/01\/14\/bzuOu.md.jpg","disc":"","duration":"00:23:55","session":"c452c03e4ada1c963d134c83605ead15cad50857","filler":0,"created_at":"2018-01-14 04:36:13"},{"id":42062,"anime_id":4,"anime_title":"One Piece","anime_slug":"one-piece","episode":"822","title":"","fansub":"HorribleSubs","snapshot":"https:\/\/d.upld.me\/2018\/01\/21\/b3aio.md.jpg","disc":"","duration":"00:23:55","session":"9c483e87d02cd804abc325b76c8e41777388c01d","filler":0,"created_at":"2018-01-21 10:04:31"},{"id":42133,"anime_id":4,"anime_title":"One Piece","anime_slug":"one-piece","episode":"823","title":"","fansub":"HorribleSubs","snapshot":"https:\/\/d.upld.me\/2018\/01\/28\/bKbQF.md.jpg","disc":"","duration":"00:23:55","session":"ce4000a27ec2736e26c576b9cf9c2a0607058d05","filler":0,"created_at":"2018-01-28 06:36:25"},{"id":42210,"anime_id":4,"anime_title":"One Piece","anime_slug":"one-piece","episode":"824","title":"","fansub":"HorribleSubs","snapshot":"https:\/\/d.upld.me\/2018\/02\/04\/bdtR0.md.jpg","disc":"","duration":"00:23:55","session":"8a3f21900b876a32bcd517541b2cc863d81e1aec","filler":0,"created_at":"2018-02-04 05:03:24"},{"id":42289,"anime_id":4,"anime_title":"One Piece","anime_slug":"one-piece","episode":"825","title":"","fansub":"HorribleSubs","snapshot":"https:\/\/d.upld.me\/2018\/02\/11\/o8bQu.md.jpg","disc":"","duration":"00:23:55","session":"3a3e3d69935b023379d5ab132443852f3dff772d","filler":0,"created_at":"2018-02-11 05:27:24"},{"id":42355,"anime_id":4,"anime_title":"One Piece","anime_slug":"one-piece","episode":"826","title":"","fansub":"HorribleSubs","snapshot":"https:\/\/d.upld.me\/2018\/02\/18\/oVGaa.md.jpg","disc":"","duration":"00:23:55","session":"4edc0236b697026d1d68eb4e69e6b26a17bda39f","filler":0,"created_at":"2018-02-18 04:54:20"},{"id":42504,"anime_id":4,"anime_title":"One Piece","anime_slug":"one-piece","episode":"827","title":"","fansub":"HorribleSubs","snapshot":"https:\/\/d.upld.me\/2018\/03\/04\/oyHSz.md.jpg","disc":"","duration":"00:23:55","session":"86aa61145f1af7900db19cec3e344754d8426898","filler":0,"created_at":"2018-03-04 09:03:28"}]}
