{"total":148,"per_page":30,"current_page":1,"last_page":5,"next_page_url":"https:\/\/animepahe.com\/api?page=2","prev_page_url":null,"from":1,"to":30,"data":[{"id":1983,"anime_id":164,"anime_title":"Hunter x Hunter","anime_slug":"hunter-x-hunter-2011","episode":"002","title":"{\"title\":\"Test \\u00d7 of \\u00d7 Tests\",\"romaji\":\"Shiken \\u00d7 no \\u00d7 Shiken\",\"japanese\":\"\\u30b7\\u30b1\\u30f3\\u00d7\\u30ce\\u00d7\\u30b7\\u30b1\\u30f3\"}","fansub":"Coalgirls","snapshot":"https:\/\/d.upld.me\/2017\/03\/21\/b084b6be5d1794a3c0c31b99b912d749.md.jpg","disc":"BD","duration":"00:23:35","session":"0c45acedad5438ea6e1ad2215d81aee7b26932e8","filler":0,"created_at":"2015-11-24 18:41:36"},{"id":1984,"anime_id":164,"anime_title":"Hunter x Hunter","anime_slug":"hunter-x-hunter-2011","episode":"003","title":"{\"title\":\"Rivals \\u00d7 for \\u00d7 Survival\",\"romaji\":\"Rival \\u00d7 ga \\u00d7 Survival\",\"japanese\":\"\\u30e9\\u30a4\\u30d0\\u30eb\\u00d7\\u30ac\\u00d7\\u30b5\\u30d0\\u30a4\\u30d0\\u30eb\"}","fansub":"Coalgirls","snapshot":"https:\/\/d.upld.me\/2017\/03\/21\/72eede836b68bed950ff14ace0986616.md.jpg","disc":"BD","duration":"00:23:35","session":"2ff4f0db5f4e3ed44960290d70ed6b5c14505183","filler":0,"created_at":"2015-11-24 18:49:38"},{"id":1985,"anime_id":164,"anime_title":"Hunter x Hunter","anime_slug":"hunter-x-hunter-2011","episode":"004","title":"{\"title\":\"Hope \\u00d7 and \\u00d7 Ambition\",\"romaji\":\"Kibou \\u00d7 to \\u00d7 Yabou\",\"japanese\":\"\\u30ad\\u30dc\\u30a6\\u00d7\\u30c8\\u00d7\\u30e4\\u30dc\\u30a6\"}","fansub":"Coalgirls","snapshot":"https:\/\/d.upld.me\/2017\/03\/21\/5edd4ba2278fdbaadf5c191e0c763062.md.jpg","disc":"BD","duration":"00:23:35","session":"4fb6f7429bbc79dbc18136f79094954677f36617","filler":0,"created_at":"2015-11-24 18:59:41"},{"id":1986,"anime_id":164,"anime_title":"Hunter x Hunter","anime_slug":"hunter-x-hunter-2011","episode":"005","title":"{\"title\":\"Hisoka \\u00d7 is \\u00d7 Sneaky\",\"romaji\":\"Hisoka \\u00d7 wa \\u00d7 Hisoka\",\"japanese\":\"\\u30d2\\u30bd\\u30ab\\u00d7\\u30cf\\u00d7\\u30d2\\u30bd\\u30ab\"}","fansub":"Coalgirls","snapshot":"https:\/\/d.upld.me\/2017\/03\/21\/aa0523478899bd09b985bfcd86682c0a.md.jpg","disc":"BD","duration":"00:23:35","session":"9af23d4a488664ef5c373d2280e8b25b83dc3687","filler":0,"created_at":"2015-11-24 19:08:31"},{"id":1987,"anime_id":164,"anime_title":"Hunter x Hunter","anime_slug":"hunter-x-hunter-2011","episode":"006","title":"{\"title\":\"A \\u00d7 Surprising \\u00d7 Challenge\",\"romaji\":\"Igai \\u00d7 na \\u00d7 Kadai\",\"japanese\":\"\\u30a4\\u30ac\\u30a4\\u00d7\\u30ca\\u00d7\\u30ab\\u30c0\\u30a4\"}","fansub":"Coalgirls","snapshot":"https:\/\/d.upld.me\/2017\/03\/21\/e734583159fda1b3a82ef762591a95b9.md.jpg","disc":"BD","duration":"00:23:35","session":"57ecb6213689b2f202e8ad453621dc37a2ff0ab0","filler":0,"created_at":"2015-11-24 19:16:51"},{"id":1988,"anime_id":164,"anime_title":"Hunter x Hunter","anime_slug":"hunter-x-hunter-2011","episode":"007","title":"{\"title\":\"Showdown \\u00d7 On \\u00d7 The Airship\",\"romaji\":\"Hikousen \\u00d7 no \\u00d7 Kessen\",\"japanese\":\"\\u30d2\\u30b3\\u30a6\\u30bb\\u30f3\\u00d7\\u30ce\\u00d7\\u30b1\\u30c3\\u30bb\\u30f3\"}","fansub":"Coalgirls","snapshot":"https:\/\/d.upld.me\/2017\/03\/21\/0a3f0bd0339905599644766452320685.md.jpg","disc":"BD","duration":"00:23:35","session":"e515d2311c70b5a98b3761480637f389ebf55ea9","filler":0,"created_at":"2015-11-24 19:24:29"},{"id":1989,"anime_id":164,"anime_title":"Hunter x Hunter","anime_slug":"hunter-x-hunter-2011","episode":"008","title":"{\"title\":\"Solution \\u00d7 Is \\u00d7 Majority Rules?\",\"romaji\":\"Kaiketsu \\u00d7 wa \\u00d7 Tasuuketsu?\",\"japanese\":\"\\u30ab\\u30a4\\u30b1\\u30c4\\u00d7\\u30cf\\u00d7\\u30bf\\u30b9\\u30a6\\u30b1\\u30c4?\"}","fansub":"Coalgirls","snapshot":"https:\/\/d.upld.me\/2017\/03\/21\/a9fb34c07453a59414bc4aba37ffdf20.md.jpg","disc":"BD","duration":"00:23:35","session":"4da52d3c14b637850d2697e99157c77b7fa42dd8","filler":0,"created_at":"2015-11-24 19:32:08"},{"id":1990,"anime_id":164,"anime_title":"Hunter x Hunter","anime_slug":"hunter-x-hunter-2011","episode":"009","title":"{\"title\":\"Beware \\u00d7 Of \\u00d7 Prisoners\",\"romaji\":\"Shuujin \\u00d7 ni \\u00d7 Goyoujin\",\"japanese\":\"\\u30b7\\u30e5\\u30a6\\u30b8\\u30f3\\u00d7\\u30cb\\u00d7\\u30b4\\u30e8\\u30a6\\u30b8\\u30f3\"}","fansub":"Coalgirls","snapshot":"https:\/\/d.upld.me\/2017\/03\/21\/5e4b7edb0d4decfc638f7791d6ce40ee.md.jpg","disc":"BD","duration":"00:23:35","session":"65977c1d5853584798ac9f1b93c21c449d6562ad","filler":0,"created_at":"2015-11-24 19:40:02"},{"id":1982,"anime_id":164,"anime_title":"Hunter x Hunter","anime_slug":"hunter-x-hunter-2011","episode":"01","title":"{\"title\":\"Departure \\u00d7 And \\u00d7 Friends\",\"romaji\":\"Tabidachi \\u00d7 to \\u00d7 Nakama-tachi\",\"japanese\":\"\\u30bf\\u30d3\\u30c0\\u30c1\\u00d7\\u30c8\\u00d7\\u30ca\\u30ab\\u30de\\u30bf\\u30c1\"}","fansub":"Coalgirls","snapshot":"https:\/\/d.upld.me\/2017\/03\/21\/b6fe84a9a4cca7662b2673815440f08c.md.jpg","disc":"BD","duration":"00:23:35","session":"557e8eb3c6b335a8af77a435b08bdd72508b140a","filler":0,"created_at":"2015-11-24 18:34:20"},{"id":1991,"anime_id":164,"anime_title":"Hunter x Hunter","anime_slug":"hunter-x-hunter-2011","episode":"010","title":"{\"title\":\"Trick \\u00d7 To \\u00d7 The Trick\",\"romaji\":\"Hikkake \\u00d7 no \\u00d7 Kikkake\",\"japanese\":\"\\u30d2\\u30c3\\u30ab\\u30b1\\u00d7\\u30ce\\u00d7\\u30ad\\u30c3\\u30ab\\u30b1\"}","fansub":"Coalgirls","snapshot":"https:\/\/d.upld.me\/2017\/03\/21\/f63761fd0b577ddb86de0d205bca9c50.md.jpg","disc":"BD","duration":"00:23:35","session":"45bf4a9b9cff6565116f4eb7a274b45fece06c0a","filler":0,"created_at":"2015-11-24 19:48:33"},{"id":1992,"anime_id":164,"anime_title":"Hunter x Hunter","anime_slug":"hunter-x-hunter-2011","episode":"011","title":"{\"title\":\"Trouble \\u00d7 With \\u00d7 The Gamble\",\"romaji\":\"Gamble \\u00d7 de \\u00d7 Trouble\",\"japanese\":\"\\u30ae\\u30e3\\u30f3\\u30d6\\u30eb\\u00d7\\u30c7\\u00d7\\u30c8\\u30e9\\u30d6\\u30eb\"}","fansub":"Coalgirls","snapshot":"https:\/\/d.upld.me\/2017\/03\/21\/5af221aca3ee9de28c1bc7af20500115.md.jpg","disc":"BD","duration":"00:23:35","session":"814fb24b317a351b2726fb9008eba32c9b553d6e","filler":0,"created_at":"2015-11-24 19:56:05"},{"id":1993,"anime_id":164,"anime_title":"Hunter x Hunter","anime_slug":"hunter-x-hunter-2011","episode":"012","title":"{\"title\":\"Last Test \\u00d7 Of \\u00d7 Resolve\",\"romaji\":\"Saigo \\u00d7 no \\u00d7 Kakugo\",\"japanese\":\"\\u30b5\\u30a4\\u30b4\\u00d7\\u30ce\\u00d7\\u30ab\\u30af\\u30b4\"}","fansub":"Coalgirls","snapshot":"https:\/\/d.upld.me\/2017\/03\/21\/d57a2d8c07c0dc69c9227a1fd5a8174c.md.jpg","disc":"BD","duration":"00:23:35","session":"9e46c6b3779b3e75015418d18145cafeff711dc2","filler":0,"created_at":"2015-11-24 20:03:26"},{"id":1994,"anime_id":164,"anime_title":"Hunter x Hunter","anime_slug":"hunter-x-hunter-2011","episode":"013","title":"{\"title\":\"Letter \\u00d7 From \\u00d7 Gon\",\"romaji\":\"Gon yori \\u00d7 no \\u00d7 Tayori\",\"japanese\":\"\\u30b4\\u30f3\\u30e8\\u30ea\\u00d7\\u30ce\\u00d7\\u30bf\\u30e8\\u30ea\"}","fansub":"Coalgirls","snapshot":"https:\/\/d.upld.me\/2017\/03\/21\/05c0da0640195c7743cd58ff8a619944.md.jpg","disc":"","duration":"00:23:37","session":"c136f66399655abb6541e12cf65cc3b3255feba9","filler":0,"created_at":"2015-11-24 20:12:44"},{"id":1995,"anime_id":164,"anime_title":"Hunter x Hunter","anime_slug":"hunter-x-hunter-2011","episode":"014","title":"{\"title\":\"Hit \\u00d7 The \\u00d7 Target\",\"romaji\":\"Target \\u00d7 ni \\u00d7 Hit\",\"japanese\":\"\\u30bf\\u30fc\\u30b2\\u30c3\\u30c8\\u00d7\\u30cb\\u00d7\\u30d2\\u30c3\\u30c8\"}","fansub":"Coalgirls","snapshot":"https:\/\/d.upld.me\/2017\/03\/21\/9548ebe48a4286e19a1bd3b45e00a120.md.jpg","disc":"BD","duration":"00:23:35","session":"0a9c533f3b9b21aa02d88186072526bf9b739277","filler":0,"created_at":"2015-11-24 20:20:54"},{"id":1996,"anime_id":164,"anime_title":"Hunter x Hunter","anime_slug":"hunter-x-hunter-2011","episode":"015","title":"{\"title\":\"Scramble \\u00d7 Of \\u00d7 Deception\",\"romaji\":\"Damashiai \\u00d7 no \\u00d7 Toriai\",\"japanese\":\"\\u30c0\\u30de\\u30b7\\u30a2\\u30a4\\u00d7\\u30ce\\u00d7\\u30c8\\u30ea\\u30a2\\u30a4\"}","fansub":"Coalgirls","snapshot":"https:\/\/d.upld.me\/2017\/03\/21\/648cd20c9d8ced7aa5b216c0ffe6b13e.md.jpg","disc":"BD","duration":"00:23:35","session":"0092d8011009bc6bb2ae6a16483a6877d7fefe80","filler":0,"created_at":"2015-11-24 20:29:19"},{"id":1997,"anime_id":164,"anime_title":"Hunter x Hunter","anime_slug":"hunter-x-hunter-2011","episode":"016","title":"{\"title\":\"Defeat \\u00d7 And \\u00d7 Disgrace\",\"romaji\":\"Haiboku \\u00d7 to \\u00d7 Kutsujoku\",\"japanese\":\"\\u30cf\\u30a4\\u30dc\\u30af\\u00d7\\u30c8\\u00d7\\u30af\\u30c4\\u30b8\\u30e7\\u30af\"}","fansub":"Coalgirls","snapshot":"https:\/\/d.upld.me\/2017\/03\/21\/304436ad13fc70ce46a2b07ab0dab1f1.md.jpg","disc":"BD","duration":"00:23:35","session":"52a3040442a23533519224855d0d683bb4ee4af5","filler":0,"created_at":"2015-11-24 20:38:06"},{"id":1998,"anime_id":164,"anime_title":"Hunter x Hunter","anime_slug":"hunter-x-hunter-2011","episode":"017","title":"{\"title\":\"Trap \\u00d7 In \\u00d7 The Hole\",\"romaji\":\"Ana \\u00d7 de \\u00d7 Wana\",\"japanese\":\"\\u30a2\\u30ca\\u00d7\\u30c7\\u00d7\\u30ef\\u30ca\"}","fansub":"Coalgirls","snapshot":"https:\/\/d.upld.me\/2017\/03\/21\/1267f9828786ed8e358a9924e6ffdb69.md.jpg","disc":"BD","duration":"00:23:35","session":"d5560ecf02d603b358b6c50af0cd9b3aa8bdbf60","filler":0,"created_at":"2015-11-24 20:46:04"},{"id":1999,"anime_id":164,"anime_title":"Hunter x Hunter","anime_slug":"hunter-x-hunter-2011","episode":"018","title":"{\"title\":\"Big \\u00d7 Time \\u00d7 Interview\",\"romaji\":\"Taisetsu \\u00d7 na \\u00d7 Mensetsu\",\"japanese\":\"\\u30bf\\u30a4\\u30bb\\u30c4\\u00d7\\u30ca\\u00d7\\u30e1\\u30f3\\u30bb\\u30c4\"}","fansub":"Coalgirls","snapshot":"https:\/\/d.upld.me\/2017\/03\/21\/bfffee66c0aed571825c0f1930898b28.md.jpg","disc":"BD","duration":"00:23:35","session":"34ea7e6cae382071244914482ac2afa32891a7ef","filler":0,"created_at":"2015-11-24 20:54:29"},{"id":2000,"anime_id":164,"anime_title":"Hunter x Hunter","anime_slug":"hunter-x-hunter-2011","episode":"019","title":"{\"title\":\"Can't Win \\u00d7 But \\u00d7 Can't Lose\",\"romaji\":\"Katenai \\u00d7 ga \\u00d7 Makenai\",\"japanese\":\"\\u30ab\\u30c6\\u30ca\\u30a4\\u00d7\\u30ac\\u00d7\\u30de\\u30b1\\u30ca\\u30a4\"}","fansub":"Coalgirls","snapshot":"https:\/\/d.upld.me\/2017\/03\/21\/4ac6e41820762856e782a6ab3aa0ffca.md.jpg","disc":"BD","duration":"00:23:35","session":"219dd5ee65b3a64e3b398d8abb9941aff78c08fc","filler":0,"created_at":"2015-11-24 21:01:57"},{"id":2001,"anime_id":164,"anime_title":"Hunter x Hunter","anime_slug":"hunter-x-hunter-2011","episode":"020","title":"{\"title\":\"Baffling Turn \\u00d7 Of \\u00d7 Events\",\"romaji\":\"Fukakai \\u00d7 na \\u00d7 Tenkai\",\"japanese\":\"\\u30d5\\u30ab\\u30ab\\u30a4\\u00d7\\u30ca\\u00d7\\u30c6\\u30f3\\u30ab\\u30a4\"}","fansub":"Coalgirls","snapshot":"https:\/\/d.upld.me\/2017\/03\/21\/ff9e29964e1c90a0290c171ad20b73cd.md.jpg","disc":"BD","duration":"00:23:35","session":"960d2699bb12d6cbdbfa727e9004d50275c9e36d","filler":0,"created_at":"2015-11-24 21:09:28"},{"id":2002,"anime_id":164,"anime_title":"Hunter x Hunter","anime_slug":"hunter-x-hunter-2011","episode":"021","title":"{\"title\":\"Some \\u00d7 Brother \\u00d7 Trouble\",\"romaji\":\"Kyoudai \\u00d7 no \\u00d7 Mondai\",\"japanese\":\"\\u30ad\\u30e7\\u30a6\\u30c0\\u30a4\\u00d7\\u30ce\\u00d7\\u30e2\\u30f3\\u30c0\\u30a4\"}","fansub":"Coalgirls","snapshot":"https:\/\/d.upld.me\/2017\/03\/21\/9256580d6ba36fc8cb462606c02c3e2c.md.jpg","disc":"BD","duration":"00:23:35","session":"b01a8a4f70230c8ab0a806f5ffbb98eb05fe5d8d","filler":0,"created_at":"2015-11-24 21:17:16"},{"id":2003,"anime_id":164,"anime_title":"Hunter x Hunter","anime_slug":"hunter-x-hunter-2011","episode":"022","title":"{\"title\":\"A \\u00d7 Dangerous \\u00d7 Watchdog\",\"romaji\":\"Kiken \\u00d7 na \\u00d7 Banken\",\"japanese\":\"\\u30ad\\u30b1\\u30f3\\u00d7\\u30ca\\u00d7\\u30d0\\u30f3\\u30b1\\u30f3\"}","fansub":"Coalgirls","snapshot":"https:\/\/d.upld.me\/2017\/03\/21\/9e7ffb1146204bc22cf3c0dcb4d71fd6.md.jpg","disc":"BD","duration":"00:23:35","session":"cbee31dc2fde12212272d8467a280358153b9cb3","filler":0,"created_at":"2015-11-24 21:24:48"},{"id":2004,"anime_id":164,"anime_title":"Hunter x Hunter","anime_slug":"hunter-x-hunter-2011","episode":"023","title":"{\"title\":\"The \\u00d7 Guard's \\u00d7 Duty\",\"romaji\":\"Bannin \\u00d7 no \\u00d7 Sekinin\",\"japanese\":\"\\u30d0\\u30f3\\u30cb\\u30f3\\u00d7\\u30ce\\u00d7\\u30bb\\u30ad\\u30cb\\u30f3\"}","fansub":"Coalgirls","snapshot":"https:\/\/d.upld.me\/2017\/03\/21\/d2ed5c674445e3f379ea0862dc50c867.md.jpg","disc":"BD","duration":"00:23:35","session":"39bcb11e1b1b670103d6663954f4e2e503e18fe6","filler":0,"created_at":"2015-11-24 21:32:29"},{"id":2005,"anime_id":164,"anime_title":"Hunter x Hunter","anime_slug":"hunter-x-hunter-2011","episode":"024","title":"{\"title\":\"The \\u00d7 Zoldyck \\u00d7 Family\",\"romaji\":\"Zoldyck \\u00d7 no \\u00d7 Kazoku\",\"japanese\":\"\\u30be\\u30eb\\u30c7\\u30a3\\u30c3\\u30af\\u00d7\\u30ce\\u00d7\\u30ab\\u30be\\u30af\"}","fansub":"Coalgirls","snapshot":"https:\/\/d.upld.me\/2017\/03\/21\/8f20e6ff3c9d2324546dfbeea180f3c8.md.jpg","disc":"BD","duration":"00:23:35","session":"ab90ad04040ad53db30972abde5f0e4cd4020cfe","filler":0,"created_at":"2015-11-24 21:40:49"},{"id":2006,"anime_id":164,"anime_title":"Hunter x Hunter","anime_slug":"hunter-x-hunter-2011","episode":"025","title":"{\"title\":\"Can't See \\u00d7 If \\u00d7 You're Blind\",\"romaji\":\"Mienai \\u00d7 to \\u00d7 Aenai\",\"japanese\":\"\\u30df\\u30a8\\u30ca\\u30a4\\u00d7\\u30c8\\u00d7\\u30a2\\u30a8\\u30ca\\u30a4\"}","fansub":"Coalgirls","snapshot":"https:\/\/d.upld.me\/2017\/03\/21\/4bb7ef401ca3da90306ebb8663564851.md.jpg","disc":"BD","duration":"00:23:35","session":"cb5ad3c1eddfb9dbb607519b4f7831bd8a1164ee","filler":0,"created_at":"2015-11-24 21:48:27"},{"id":2007,"anime_id":164,"anime_title":"Hunter x Hunter","anime_slug":"hunter-x-hunter-2011","episode":"026","title":"{\"title\":\"Then \\u00d7 and \\u00d7 After\",\"romaji\":\"Arekara \\u00d7 to \\u00d7 Sorekara\",\"japanese\":\"\\u30a2\\u30ec\\u30ab\\u30e9\\u00d7\\u30c8\\u00d7\\u30bd\\u30ec\\u30ab\\u30e9\"}","fansub":"Coalgirls","snapshot":"https:\/\/d.upld.me\/2017\/03\/21\/9142eae073c262cdb815ee67c7792653.md.jpg","disc":"","duration":"00:23:38","session":"c07db4620e71423d52cdf7afa84967e01892fede","filler":0,"created_at":"2015-11-24 21:56:41"},{"id":2008,"anime_id":164,"anime_title":"Hunter x Hunter","anime_slug":"hunter-x-hunter-2011","episode":"027","title":"{\"title\":\"Arrival \\u00d7 At \\u00d7 The Arena\",\"romaji\":\"Tougijou \\u00d7 ni \\u00d7 Toujou\",\"japanese\":\"\\u30c8\\u30a6\\u30ae\\u30b8\\u30e7\\u30a6\\u00d7\\u30cb\\u00d7\\u30c8\\u30a6\\u30b8\\u30e7\\u30a6\"}","fansub":"Coalgirls","snapshot":"https:\/\/d.upld.me\/2017\/03\/21\/dfa6d16981413fbfef4d174c77b24bcf.md.jpg","disc":"BD","duration":"00:23:35","session":"e360a762eacf09d9fc053286bbeeb5406dcb4ae3","filler":0,"created_at":"2015-11-24 22:04:19"},{"id":2009,"anime_id":164,"anime_title":"Hunter x Hunter","anime_slug":"hunter-x-hunter-2011","episode":"028","title":"{\"title\":\"Nen \\u00d7 And \\u00d7 Nen\",\"romaji\":\"Nen \\u00d7 to \\u00d7 Nen\",\"japanese\":\"\\u30cd\\u30f3\\u00d7\\u30c8\\u00d7\\u30cd\\u30f3\"}","fansub":"Coalgirls","snapshot":"https:\/\/d.upld.me\/2017\/03\/21\/85f6457e4056a0b3d57dfd178aca7e5e.md.jpg","disc":"BD","duration":"00:23:35","session":"3594e4768c3df71635817c7d4bacf7dc54991cc4","filler":0,"created_at":"2015-11-24 22:12:25"},{"id":2010,"anime_id":164,"anime_title":"Hunter x Hunter","anime_slug":"hunter-x-hunter-2011","episode":"029","title":"{\"title\":\"Awakening \\u00d7 And \\u00d7 Potential\",\"romaji\":\"Kakusei \\u00d7 to \\u00d7 Kanousei\",\"japanese\":\"\\u30ab\\u30af\\u30bb\\u30a4\\u00d7\\u30c8\\u00d7\\u30ab\\u30ce\\u30a6\\u30bb\\u30a4\"}","fansub":"Coalgirls","snapshot":"https:\/\/d.upld.me\/2017\/03\/21\/5039116ff1499f30c1ad86b2369017da.md.jpg","disc":"BD","duration":"00:23:35","session":"86899752de41d6ff19a4e35ea725cad031680ba6","filler":0,"created_at":"2015-11-24 22:20:43"},{"id":2011,"anime_id":164,"anime_title":"Hunter x Hunter","anime_slug":"hunter-x-hunter-2011","episode":"030","title":"{\"title\":\"Fierce \\u00d7 And \\u00d7 Ferocious\",\"romaji\":\"Gekitou \\u00d7 to \\u00d7 Kattou\",\"japanese\":\"\\u30b2\\u30ad\\u30c8\\u30a6\\u00d7\\u30c8\\u00d7\\u30ab\\u30c3\\u30c8\\u30a6\"}","fansub":"Coalgirls","snapshot":"https:\/\/d.upld.me\/2017\/03\/21\/aa9f6261cca163d7149ac13625cbb9bd.md.jpg","disc":"BD","duration":"00:23:35","session":"6e680a3e07c8aa27d0fe727488f7b8124f3215d0","filler":0,"created_at":"2015-11-24 22:29:32"}]}