{"total":148,"per_page":30,"current_page":5,"last_page":5,"next_page_url":null,"prev_page_url":"https:\/\/animepahe.com\/api?page=4","from":121,"to":148,"data":[{"id":2105,"anime_id":164,"anime_title":"Hunter x Hunter","anime_slug":"hunter-x-hunter-2011","episode":"121","title":"{\"title\":\"Defeat \\u00d7 And \\u00d7 Dignity\",\"romaji\":\"Haiboku \\u00d7 to \\u00d7 Menboku\",\"japanese\":\"\\u30cf\\u30a4\\u30dc\\u30af\\u00d7\\u30c8\\u00d7\\u30e1\\u30f3\\u30dc\\u30af\"}","fansub":"Coalgirls","snapshot":"https:\/\/d.upld.me\/2017\/03\/21\/f26394d3add6d211434b75cc099bdc2e.md.jpg","disc":"BD","duration":"00:23:35","session":"13253a839cddb49f8e7cc4ea7a149acc852cab53","filler":0,"created_at":"2015-11-25 11:25:24"},{"id":2106,"anime_id":164,"anime_title":"Hunter x Hunter","anime_slug":"hunter-x-hunter-2011","episode":"122","title":"{\"title\":\"Pose \\u00d7 And \\u00d7 Name\",\"romaji\":\"Tatemae \\u00d7 to \\u00d7 Namae\",\"japanese\":\"\\u30bf\\u30c6\\u30de\\u30a8\\u00d7\\u30c8\\u00d7\\u30ca\\u30de\\u30a8\"}","fansub":"Coalgirls","snapshot":"https:\/\/d.upld.me\/2017\/03\/21\/941d43beeebe38d55708a8716b2a0389.md.jpg","disc":"BD","duration":"00:23:35","session":"f295bae5f2852f42c98d795e757b082c40f104d6","filler":0,"created_at":"2015-11-25 11:33:42"},{"id":2107,"anime_id":164,"anime_title":"Hunter x Hunter","anime_slug":"hunter-x-hunter-2011","episode":"123","title":"{\"title\":\"Centipede \\u00d7 And \\u00d7 Memory\",\"romaji\":\"Mukade \\u00d7 to \\u00d7 Omoide\",\"japanese\":\"\\u30e0\\u30ab\\u30c7\\u00d7\\u30c8\\u00d7\\u30aa\\u30e2\\u30a4\\u30c7\"}","fansub":"Coalgirls","snapshot":"https:\/\/d.upld.me\/2017\/03\/21\/a60a141bba2851c614dcfe6f2faec537.md.jpg","disc":"BD","duration":"00:23:35","session":"1e61b1dfe63119e3b1423bc2e149ee57628ded51","filler":0,"created_at":"2015-11-25 11:42:04"},{"id":2110,"anime_id":164,"anime_title":"Hunter x Hunter","anime_slug":"hunter-x-hunter-2011","episode":"124","title":"{\"title\":\"Breakdown \\u00d7 And \\u00d7 Awakening\",\"romaji\":\"Kekkai \\u00d7 to \\u00d7 Kakusei\",\"japanese\":\"\\u30b1\\u30c3\\u30ab\\u30a4\\u00d7\\u30c8\\u00d7\\u30ab\\u30af\\u30bb\\u30a4\"}","fansub":"Coalgirls","snapshot":"https:\/\/d.upld.me\/2017\/03\/21\/85c42e31ea00f98d94a23b9e63694f3d.md.jpg","disc":"BD","duration":"00:23:35","session":"5b2a4b57c274d34e90cec28694cb8ff91a14202e","filler":0,"created_at":"2015-11-25 12:21:17"},{"id":2111,"anime_id":164,"anime_title":"Hunter x Hunter","anime_slug":"hunter-x-hunter-2011","episode":"125","title":"{\"title\":\"Great Power \\u00d7 And \\u00d7 Ultimate Power\",\"romaji\":\"Bu no Tsuyomi \\u00d7 to \\u00d7 Bu no Kiwami\",\"japanese\":\"\\u30d6\\u30ce\\u30c4\\u30e8\\u30df\\u00d7\\u30c8\\u00d7\\u30d6\\u30ce\\u30ad\\u30ef\\u30df\"}","fansub":"Coalgirls","snapshot":"https:\/\/d.upld.me\/2017\/03\/21\/0d5d6c2c618c263d7f6567c728fc3a63.md.jpg","disc":"BD","duration":"00:23:35","session":"001fec2f64136f06319cc562612811c2b5198a01","filler":0,"created_at":"2015-11-25 12:30:25"},{"id":2112,"anime_id":164,"anime_title":"Hunter x Hunter","anime_slug":"hunter-x-hunter-2011","episode":"126","title":"{\"title\":\"Zero \\u00d7 And \\u00d7 Rose\",\"romaji\":\"Zero \\u00d7 to \\u00d7 Rose\",\"japanese\":\"\\u30bc\\u30ed\\u00d7\\u30c8\\u00d7\\u30ed\\u30fc\\u30ba\"}","fansub":"Coalgirls","snapshot":"https:\/\/d.upld.me\/2017\/03\/21\/729652ce5ca6f34dddd70604a954f5ce.md.jpg","disc":"BD","duration":"00:23:35","session":"0a187523883bbfc377140492ae03c5f0be377fe6","filler":0,"created_at":"2015-11-25 12:40:37"},{"id":2113,"anime_id":164,"anime_title":"Hunter x Hunter","anime_slug":"hunter-x-hunter-2011","episode":"127","title":"{\"title\":\"Hostility \\u00d7 And \\u00d7 Determination\",\"romaji\":\"Tekii \\u00d7 to \\u00d7 Ketsui\",\"japanese\":\"\\u30c6\\u30ad\\u30a4\\u00d7\\u30c8\\u00d7\\u30b1\\u30c4\\u30a4\"}","fansub":"Coalgirls","snapshot":"https:\/\/d.upld.me\/2017\/03\/21\/f15f97b403d2a44514a52f522aefdb0f.md.jpg","disc":"BD","duration":"00:23:35","session":"7a9bc1ae87b8ec5a9c2ad524843441a12a1a85c8","filler":0,"created_at":"2015-11-25 12:50:06"},{"id":2114,"anime_id":164,"anime_title":"Hunter x Hunter","anime_slug":"hunter-x-hunter-2011","episode":"128","title":"{\"title\":\"Unparalleled Joy \\u00d7 And \\u00d7 Unconditional Love\",\"romaji\":\"Mujou no Yorokobi \\u00d7 to \\u00d7 Mushou no Ai\",\"japanese\":\"\\u30e0\\u30b8\\u30e7\\u30a6\\u30ce\\u30e8\\u30ed\\u30b3\\u30d3\\u00d7\\u30c8\\u00d7\\u30e0\\u30b7\\u30e7\\u30a6\\u30ce\\u30a2\\u30a4\"}","fansub":"Coalgirls","snapshot":"https:\/\/d.upld.me\/2017\/03\/21\/0faa1671fbd4a90847021637c5f5ed56.md.jpg","disc":"BD","duration":"00:23:35","session":"b4eebc53deca3e74591b48592a912d150b6a91f8","filler":0,"created_at":"2015-11-25 12:59:37"},{"id":2115,"anime_id":164,"anime_title":"Hunter x Hunter","anime_slug":"hunter-x-hunter-2011","episode":"129","title":"{\"title\":\"Formidable Enemy \\u00d7 And \\u00d7 Clear Objective\",\"romaji\":\"Hyouteki \\u00d7 to \\u00d7 Mokuteki\",\"japanese\":\"\\u30d2\\u30e7\\u30a6\\u30c6\\u30ad\\u00d7\\u30c8\\u00d7\\u30e2\\u30af\\u30c6\\u30ad\"}","fansub":"Coalgirls","snapshot":"https:\/\/d.upld.me\/2017\/03\/21\/4a4a0ce0f493a6b0752b2a4f2fbe1d0e.md.jpg","disc":"BD","duration":"00:23:35","session":"e1acf7a4d6de66b2d743bf1c569c62b25b1e5bc5","filler":0,"created_at":"2015-11-25 13:09:04"},{"id":2116,"anime_id":164,"anime_title":"Hunter x Hunter","anime_slug":"hunter-x-hunter-2011","episode":"130","title":"{\"title\":\"Magic \\u00d7 And \\u00d7 Despair\",\"romaji\":\"Mahou \\u00d7 te \\u00d7 Zetsubou\",\"japanese\":\"\\u30de\\u30db\\u30a6\\u00d7\\u30c7\\u00d7\\u30bc\\u30c4\\u30dc\\u30a6\"}","fansub":"Coalgirls","snapshot":"https:\/\/d.upld.me\/2017\/03\/21\/07e0225af2af6020b6f75ceb8d3a163f.md.jpg","disc":"BD","duration":"00:23:35","session":"819aeb91e5666d926228d80015daa2f76601f804","filler":0,"created_at":"2015-11-25 13:18:06"},{"id":2117,"anime_id":164,"anime_title":"Hunter x Hunter","anime_slug":"hunter-x-hunter-2011","episode":"131","title":"{\"title\":\"Anger \\u00d7 And \\u00d7 Light\",\"romaji\":\"Ikari \\u00d7 to \\u00d7 Hikari\",\"japanese\":\"\\u30a4\\u30ab\\u30ea\\u00d7\\u30c8\\u00d7\\u30d2\\u30ab\\u30ea\"}","fansub":"Coalgirls","snapshot":"https:\/\/d.upld.me\/2017\/03\/21\/8981aeb795f2ad7c23ac5d710858c54d.md.jpg","disc":"BD","duration":"00:23:35","session":"8cdb33f4950f120cde213101700c993123f9a6db","filler":0,"created_at":"2015-11-25 13:28:25"},{"id":2118,"anime_id":164,"anime_title":"Hunter x Hunter","anime_slug":"hunter-x-hunter-2011","episode":"132","title":"{\"title\":\"Flash \\u00d7 And \\u00d7 Trigger\",\"romaji\":\"Senkou \\u00d7 to \\u00d7 Hatsudou\",\"japanese\":\"\\u30bb\\u30f3\\u30b3\\u30a6\\u00d7\\u30c8\\u00d7\\u30cf\\u30c4\\u30c9\\u30a6\"}","fansub":"Coalgirls","snapshot":"https:\/\/d.upld.me\/2017\/03\/21\/3785fb2ad79c81f7abefa2169d024141.md.jpg","disc":"BD","duration":"00:23:35","session":"6981fa269a949761a0968ec1d53cde97c58cb103","filler":0,"created_at":"2015-11-25 13:37:19"},{"id":2121,"anime_id":164,"anime_title":"Hunter x Hunter","anime_slug":"hunter-x-hunter-2011","episode":"133","title":"{\"title\":\"Deadline \\u00d7 to \\u00d7 Live\",\"romaji\":\"Seizon \\u00d7 no \\u00d7 Kigen\",\"japanese\":\"\\u30bb\\u30a4\\u30be\\u30f3\\u00d7\\u30ce\\u00d7\\u30ad\\u30b2\\u30f3\"}","fansub":"Coalgirls","snapshot":"https:\/\/d.upld.me\/2017\/03\/21\/ab1b985b7b64ba17c1c1ccf8aaa8ff45.md.jpg","disc":"BD","duration":"00:23:35","session":"8156ae555b12060612297dd9fc798379bd508059","filler":0,"created_at":"2015-11-25 13:52:23"},{"id":2122,"anime_id":164,"anime_title":"Hunter x Hunter","anime_slug":"hunter-x-hunter-2011","episode":"134","title":"{\"title\":\"The Word \\u00d7 Is \\u00d7 That Person\",\"romaji\":\"Hito Koto \\u00d7 wa \\u00d7 Sono Hito\",\"japanese\":\"\\u30d2\\u30c8\\u30b3\\u30c8\\u00d7\\u30cf\\u00d7\\u30bd\\u30ce\\u30d2\\u30c8\"}","fansub":"Coalgirls","snapshot":"https:\/\/d.upld.me\/2017\/03\/21\/f661be2041c4a9b3366f426cc9cf4e7b.md.jpg","disc":"BD","duration":"00:23:35","session":"0dfcd56c417148fff458e76b5c4211ebe2a094eb","filler":0,"created_at":"2015-11-25 14:02:08"},{"id":2123,"anime_id":164,"anime_title":"Hunter x Hunter","anime_slug":"hunter-x-hunter-2011","episode":"135","title":"{\"title\":\"This Day \\u00d7 And \\u00d7 This Moment\",\"romaji\":\"Kono Hi \\u00d7 to \\u00d7 Kono Shunkan\",\"japanese\":\"\\u30b3\\u30ce\\u30d2\\u00d7\\u30c8\\u00d7\\u30b3\\u30ce\\u30b7\\u30e5\\u30f3\\u30ab\\u30f3\"}","fansub":"Coalgirls","snapshot":"https:\/\/d.upld.me\/2017\/03\/21\/0352f77a65d6be40762755b106e71d66.md.jpg","disc":"BD","duration":"00:23:40","session":"2e040062ad7ed2ad46aca9b104bf64edf0becc48","filler":0,"created_at":"2015-11-25 14:09:30"},{"id":2124,"anime_id":164,"anime_title":"Hunter x Hunter","anime_slug":"hunter-x-hunter-2011","episode":"136","title":"{\"title\":\"Homecoming \\u00d7 And \\u00d7 Real Name\",\"romaji\":\"Kikyou \\u00d7 to \\u00d7 Honmyou\",\"japanese\":\"\\u30ad\\u30ad\\u30e7\\u30a6\\u00d7\\u30c8\\u00d7\\u30db\\u30f3\\u30df\\u30e7\\u30a6\"}","fansub":"Coalgirls","snapshot":"https:\/\/d.upld.me\/2017\/03\/21\/53b1a6a23b671ebcd68eac26d61dbf5a.md.jpg","disc":"BD","duration":"00:23:35","session":"5f053c6a0ebd160d1a7bcc246c25941964e4dcb3","filler":0,"created_at":"2015-11-25 14:17:33"},{"id":2125,"anime_id":164,"anime_title":"Hunter x Hunter","anime_slug":"hunter-x-hunter-2011","episode":"137","title":"{\"title\":\"Twelve Zodiac \\u00d7 In \\u00d7 Discussion\",\"romaji\":\"Juuni-shin \\u00d7 de \\u00d7 Giron\",\"japanese\":\"\\u30b8\\u30e5\\u30a6\\u30cb\\u30b7\\u30f3\\u00d7\\u30c7\\u00d7\\u30ae\\u30ed\\u30f3\"}","fansub":"Coalgirls","snapshot":"https:\/\/d.upld.me\/2017\/03\/21\/8c92f8963e406d867e060e51b3b3a1e7.md.jpg","disc":"BD","duration":"00:23:35","session":"706df1e152a5a1aa0ca474078610a3998179da05","filler":0,"created_at":"2015-11-25 14:24:32"},{"id":2126,"anime_id":164,"anime_title":"Hunter x Hunter","anime_slug":"hunter-x-hunter-2011","episode":"138","title":"{\"title\":\"Plea \\u00d7 and \\u00d7 Favor\",\"romaji\":\"Onedari \\u00d7 to \\u00d7 Onegai\",\"japanese\":\"\\u30aa\\u30cd\\u30c0\\u30ea\\u00d7\\u30c8\\u00d7\\u30aa\\u30cd\\u30ac\\u30a4\"}","fansub":"Coalgirls","snapshot":"https:\/\/d.upld.me\/2017\/03\/21\/10e22e8e4b60966f2eb184c4a54290ca.md.jpg","disc":"BD","duration":"00:23:35","session":"f67f0f8ff5bc77805e61ae3c2691f5d7542d36cb","filler":0,"created_at":"2015-11-25 14:31:46"},{"id":2127,"anime_id":164,"anime_title":"Hunter x Hunter","anime_slug":"hunter-x-hunter-2011","episode":"139","title":"{\"title\":\"Alluka \\u00d7 and \\u00d7 That Thing\",\"romaji\":\"Alluka \\u00d7 to \\u00d7 Nanika\",\"japanese\":\"\\u30a2\\u30eb\\u30ab\\u00d7\\u30c8\\u00d7\\u30ca\\u30cb\\u30ab\"}","fansub":"Coalgirls","snapshot":"https:\/\/d.upld.me\/2017\/03\/21\/b5b08528a3ff80a1bdfe349d7069de10.md.jpg","disc":"BD","duration":"00:23:35","session":"d3a4ffe7e8303135ba22078800ab01d8853b859b","filler":0,"created_at":"2015-11-25 14:39:21"},{"id":2128,"anime_id":164,"anime_title":"Hunter x Hunter","anime_slug":"hunter-x-hunter-2011","episode":"140","title":"{\"title\":\"Third Election \\u00d7 And \\u00d7 Re-election\",\"romaji\":\"Sansen \\u00d7 to \\u00d7 Kaisen\",\"japanese\":\"\\u30b5\\u30f3\\u30bb\\u30f3\\u00d7\\u30c8\\u00d7\\u30ab\\u30a4\\u30bb\\u30f3\"}","fansub":"Coalgirls","snapshot":"https:\/\/d.upld.me\/2017\/03\/21\/85fbc245652dde4fc25d8acaadf83db3.md.jpg","disc":"BD","duration":"00:23:35","session":"a37b3031edc3844e609236cd124474e458fba64c","filler":0,"created_at":"2015-11-25 14:46:45"},{"id":2129,"anime_id":164,"anime_title":"Hunter x Hunter","anime_slug":"hunter-x-hunter-2011","episode":"141","title":"{\"title\":\"Magician \\u00d7 And \\u00d7 Butler\",\"romaji\":\"Tejinashi \\u00d7 to \\u00d7 Hitsuji\",\"japanese\":\"\\u30c6\\u30b8\\u30ca\\u30b7\\u00d7\\u30c8\\u00d7\\u30d2\\u30c4\\u30b8\"}","fansub":"Coalgirls","snapshot":"https:\/\/d.upld.me\/2017\/03\/21\/1edc14829db306737e27a6b3d3763a37.md.jpg","disc":"BD","duration":"00:23:35","session":"8054e3fb42cf20d071f70aeb9d042df2a3fb6259","filler":0,"created_at":"2015-11-25 14:55:11"},{"id":2130,"anime_id":164,"anime_title":"Hunter x Hunter","anime_slug":"hunter-x-hunter-2011","episode":"142","title":"{\"title\":\"Needle \\u00d7 And \\u00d7 Debt\",\"romaji\":\"Hari \\u00d7 to \\u00d7 Kari\",\"japanese\":\"\\u30cf\\u30ea\\u00d7\\u30c8\\u00d7\\u30ab\\u30ea\"}","fansub":"Coalgirls","snapshot":"https:\/\/d.upld.me\/2017\/03\/21\/e00786d4571113850c722e5e2b707573.md.jpg","disc":"BD","duration":"00:23:35","session":"4879223ab0f366022d008e7fcf6905df621743da","filler":0,"created_at":"2015-11-25 15:03:55"},{"id":2131,"anime_id":164,"anime_title":"Hunter x Hunter","anime_slug":"hunter-x-hunter-2011","episode":"143","title":"{\"title\":\"Sin \\u00d7 And \\u00d7 Claw\",\"romaji\":\"Tsumi \\u00d7 to \\u00d7 Tsume\",\"japanese\":\"\\u30c4\\u30df\\u00d7\\u30c8\\u00d7\\u30c4\\u30e1\"}","fansub":"Coalgirls","snapshot":"https:\/\/d.upld.me\/2017\/03\/21\/03ee10ae77652bbddda11b7cb00b8db8.md.jpg","disc":"BD","duration":"00:23:35","session":"195ce0e40e041f3ebdaccebf1c5c57ace74c8c10","filler":0,"created_at":"2015-11-25 15:11:07"},{"id":2132,"anime_id":164,"anime_title":"Hunter x Hunter","anime_slug":"hunter-x-hunter-2011","episode":"144","title":"{\"title\":\"Approval \\u00d7 And \\u00d7 Coalition\",\"romaji\":\"Kessai \\u00d7 to \\u00d7 Kassai\",\"japanese\":\"\\u30b1\\u30c3\\u30b5\\u30a4\\u00d7\\u30c8\\u00d7\\u30ab\\u30c3\\u30b5\\u30a4\"}","fansub":"Coalgirls","snapshot":"https:\/\/d.upld.me\/2017\/03\/21\/29a5872aaacb1519cc70e0fc155ea5c4.md.jpg","disc":"BD","duration":"00:23:35","session":"81a2eb38aa689c035f3256cf0e4244864eae262d","filler":0,"created_at":"2015-11-25 15:18:05"},{"id":2133,"anime_id":164,"anime_title":"Hunter x Hunter","anime_slug":"hunter-x-hunter-2011","episode":"145","title":"{\"title\":\"Defeat \\u00d7 And \\u00d7 Reunion\",\"romaji\":\"Kanpai \\u00d7 to \\u00d7 Saikai\",\"japanese\":\"\\u30ab\\u30f3\\u30d1\\u30a4\\u00d7\\u30c8\\u00d7\\u30b5\\u30a4\\u30ab\\u30a4\"}","fansub":"Coalgirls","snapshot":"https:\/\/d.upld.me\/2017\/03\/21\/bc31b069bb942655c46ad26b4ae68c7f.md.jpg","disc":"BD","duration":"00:23:35","session":"b2365616a441c30159454e9d2f9ee518f2424fa5","filler":0,"created_at":"2015-11-25 15:26:07"},{"id":2134,"anime_id":164,"anime_title":"Hunter x Hunter","anime_slug":"hunter-x-hunter-2011","episode":"146","title":"{\"title\":\"Chairman \\u00d7 And \\u00d7 Release\",\"romaji\":\"Kaichou \\u00d7 to \\u00d7 Kaijo\",\"japanese\":\"\\u30ab\\u30a4\\u30c1\\u30e7\\u30a6\\u00d7\\u30c8\\u00d7\\u30ab\\u30a4\\u30b8\\u30e7\"}","fansub":"Coalgirls","snapshot":"https:\/\/d.upld.me\/2017\/03\/21\/ed9592a35dbd00e156e7d0cb64691608.md.jpg","disc":"BD","duration":"00:23:35","session":"8767e6ac325d0e56ceb7a6794368dc6a17689b92","filler":0,"created_at":"2015-11-25 15:33:32"},{"id":2135,"anime_id":164,"anime_title":"Hunter x Hunter","anime_slug":"hunter-x-hunter-2011","episode":"147","title":"{\"title\":\"Salvation \\u00d7 And \\u00d7 Future\",\"romaji\":\"Sukui \\u00d7 to \\u00d7 Mirai\",\"japanese\":\"\\u30b9\\u30af\\u30a4\\u00d7\\u30c8\\u00d7\\u30df\\u30e9\\u30a4\"}","fansub":"Coalgirls","snapshot":"https:\/\/d.upld.me\/2017\/03\/21\/2e2416b3e01a71092f106203080ce104.md.jpg","disc":"BD","duration":"00:23:35","session":"50eb75fdf7b60bb5a33f7bacdaf3ca118d087600","filler":0,"created_at":"2015-11-25 15:41:42"},{"id":2136,"anime_id":164,"anime_title":"Hunter x Hunter","anime_slug":"hunter-x-hunter-2011","episode":"148","title":"{\"title\":\"Until Now \\u00d7 And \\u00d7 From Now\",\"romaji\":\"Kore made \\u00d7 to \\u00d7 Kore kara\",\"japanese\":\"\\u30b3\\u30ec\\u30de\\u30c7\\u00d7\\u30c8\\u00d7\\u30b3\\u30ec\\u30ab\\u30e9\"}","fansub":"Coalgirls","snapshot":"https:\/\/d.upld.me\/2017\/03\/21\/e1cd5eb15f9d344721869e0467dc537a.md.jpg","disc":"BD","duration":"00:23:25","session":"1a6d42d7c6b5ae4d622351a5f6cc8c1980e16a81","filler":0,"created_at":"2015-11-25 15:49:50"}]}